<?xml version="1.0" encoding="UTF-8" standalone="no"?>
<!-- Created with Inkscape (http://www.inkscape.org/) -->

<svg
   xmlns:dc="http://purl.org/dc/elements/1.1/"
   xmlns:cc="http://creativecommons.org/ns#"
   xmlns:rdf="http://www.w3.org/1999/02/22-rdf-syntax-ns#"
   xmlns:svg="http://www.w3.org/2000/svg"
   xmlns="http://www.w3.org/2000/svg"
   xmlns:sodipodi="http://sodipodi.sourceforge.net/DTD/sodipodi-0.dtd"
   xmlns:inkscape="http://www.inkscape.org/namespaces/inkscape"
   width="631.33173mm"
   height="923.28949mm"
   viewBox="0 0 631.33173 923.28947"
   version="1.1"
   id="svg8"
   inkscape:version="0.92.3 (2405546, 2018-03-11)"
   sodipodi:docname="scratch-tech.svg"
   inkscape:export-filename="/home/jr/Bureau/scratch-tech.svg.png"
   inkscape:export-xdpi="90"
   inkscape:export-ydpi="90">
  <defs
     id="defs2" />
  <sodipodi:namedview
     id="base"
     pagecolor="#ffffff"
     bordercolor="#666666"
     borderopacity="1.0"
     inkscape:pageopacity="1"
     inkscape:pageshadow="2"
     inkscape:zoom="0.13721601"
     inkscape:cx="968.65767"
     inkscape:cy="1897.4632"
     inkscape:document-units="mm"
     inkscape:current-layer="layer1"
     showgrid="false"
     inkscape:window-width="1366"
     inkscape:window-height="719"
     inkscape:window-x="0"
     inkscape:window-y="25"
     inkscape:window-maximized="1"
     fit-margin-top="0"
     fit-margin-left="0"
     fit-margin-right="0"
     fit-margin-bottom="0"
     showborder="false" />
  <metadata
     id="metadata5">
    <rdf:RDF>
      <cc:Work
         rdf:about="">
        <dc:format>image/svg+xml</dc:format>
        <dc:type
           rdf:resource="http://purl.org/dc/dcmitype/StillImage" />
        <dc:title></dc:title>
      </cc:Work>
    </rdf:RDF>
  </metadata>
  <g
     inkscape:label="Calque 1"
     inkscape:groupmode="layer"
     id="layer1"
     transform="translate(123.39099,198.56877)">
    <rect
       style="opacity:1;fill:#ff0000;fill-opacity:0.6533333;fill-rule:nonzero;stroke:none;stroke-width:1.99999988;stroke-linecap:butt;stroke-linejoin:round;stroke-miterlimit:4;stroke-dasharray:none;stroke-dashoffset:0;stroke-opacity:1;paint-order:fill markers stroke"
       id="rect827"
       width="52.260433"
       height="7"
       x="105.53349"
       y="95.952072" />
    <rect
       y="-193.34665"
       x="123.95207"
       height="6"
       width="12.999999"
       id="rect836"
       style="opacity:1;fill:#000000;fill-opacity:1;fill-rule:nonzero;stroke:none;stroke-width:1.99999964;stroke-linecap:butt;stroke-linejoin:round;stroke-miterlimit:4;stroke-dasharray:none;stroke-dashoffset:0;stroke-opacity:1;paint-order:fill markers stroke"
       transform="rotate(90)" />
    <rect
       transform="rotate(90)"
       style="opacity:1;fill:#333333;fill-opacity:1;fill-rule:nonzero;stroke:none;stroke-width:1.99999964;stroke-linecap:butt;stroke-linejoin:round;stroke-miterlimit:4;stroke-dasharray:none;stroke-dashoffset:0;stroke-opacity:1;paint-order:fill markers stroke"
       id="rect838"
       width="4.8499999"
       height="20"
       x="136.95207"
       y="-200.34665" />
    <rect
       y="-209.84665"
       x="141.80208"
       height="39"
       width="36.5"
       id="rect840"
       style="opacity:1;fill:#cccccc;fill-opacity:1;fill-rule:nonzero;stroke:none;stroke-width:1.99999964;stroke-linecap:butt;stroke-linejoin:round;stroke-miterlimit:4;stroke-dasharray:none;stroke-dashoffset:0;stroke-opacity:1;paint-order:fill markers stroke"
       transform="rotate(90)" />
    <g
       id="g848"
       transform="translate(24.102812)">
      <rect
         transform="scale(1,-1)"
         y="-141.80208"
         x="133.69112"
         height="2"
         width="52.052723"
         id="rect842"
         style="opacity:1;fill:#666666;fill-opacity:0.6533333;fill-rule:nonzero;stroke:none;stroke-width:1.99999988;stroke-linecap:butt;stroke-linejoin:round;stroke-miterlimit:4;stroke-dasharray:none;stroke-dashoffset:0;stroke-opacity:1;paint-order:fill markers stroke" />
      <rect
         style="opacity:1;fill:#666666;fill-opacity:0.6533333;fill-rule:nonzero;stroke:none;stroke-width:1.99999976;stroke-linecap:butt;stroke-linejoin:round;stroke-miterlimit:4;stroke-dasharray:none;stroke-dashoffset:0;stroke-opacity:1;paint-order:fill markers stroke"
         id="rect844"
         width="71.088463"
         height="2"
         x="141.80208"
         y="133.69112"
         transform="matrix(0,1,1,0,0,0)" />
    </g>
    <rect
       style="opacity:1;fill:#666666;fill-opacity:0.6533333;fill-rule:nonzero;stroke:none;stroke-width:2;stroke-linecap:butt;stroke-linejoin:round;stroke-miterlimit:4;stroke-dasharray:none;stroke-dashoffset:0;stroke-opacity:1;paint-order:fill markers stroke"
       id="rect850"
       width="15"
       height="30.241402"
       x="182.84665"
       y="104.83143" />
    <g
       id="g837"
       transform="translate(24.102812,-0.68172455)">
      <rect
         y="103.6338"
         x="-44.797989"
         height="15"
         width="178.48911"
         id="rect854"
         style="opacity:1;fill:#666666;fill-opacity:0.6533333;fill-rule:nonzero;stroke:none;stroke-width:2;stroke-linecap:butt;stroke-linejoin:round;stroke-miterlimit:4;stroke-dasharray:none;stroke-dashoffset:0;stroke-opacity:1;paint-order:fill markers stroke" />
      <rect
         transform="rotate(90)"
         style="opacity:1;fill:#666666;fill-opacity:0.6533333;fill-rule:nonzero;stroke:none;stroke-width:2;stroke-linecap:butt;stroke-linejoin:round;stroke-miterlimit:4;stroke-dasharray:none;stroke-dashoffset:0;stroke-opacity:1;paint-order:fill markers stroke"
         id="rect856"
         width="161.73764"
         height="15"
         x="118.71425"
         y="-133.69112" />
    </g>
    <rect
       y="87.952072"
       x="-123.39099"
       height="15"
       width="161.73764"
       id="rect860"
       style="opacity:1;fill:#1a1a1a;fill-opacity:0.6533333;fill-rule:nonzero;stroke:none;stroke-width:2;stroke-linecap:butt;stroke-linejoin:round;stroke-miterlimit:4;stroke-dasharray:none;stroke-dashoffset:0;stroke-opacity:1;paint-order:fill markers stroke" />
    <rect
       style="opacity:1;fill:#1a1a1a;fill-opacity:0.6533333;fill-rule:nonzero;stroke:none;stroke-width:2;stroke-linecap:butt;stroke-linejoin:round;stroke-miterlimit:4;stroke-dasharray:none;stroke-dashoffset:0;stroke-opacity:1;paint-order:fill markers stroke"
       id="rect862"
       width="161.73764"
       height="15"
       x="342.34665"
       y="87.952072" />
    <rect
       y="102.95207"
       x="219.30783"
       height="15"
       width="178.48911"
       id="rect833"
       style="opacity:1;fill:#666666;fill-opacity:0.6533333;fill-rule:nonzero;stroke:none;stroke-width:2;stroke-linecap:butt;stroke-linejoin:round;stroke-miterlimit:4;stroke-dasharray:none;stroke-dashoffset:0;stroke-opacity:1;paint-order:fill markers stroke" />
    <rect
       y="95.952072"
       x="219.30783"
       height="7"
       width="52.260433"
       id="rect843"
       style="opacity:1;fill:#ff0000;fill-opacity:0.6533333;fill-rule:nonzero;stroke:none;stroke-width:1.99999988;stroke-linecap:butt;stroke-linejoin:round;stroke-miterlimit:4;stroke-dasharray:none;stroke-dashoffset:0;stroke-opacity:1;paint-order:fill markers stroke" />
    <g
       id="g852"
       transform="translate(24.102812,2)">
      <rect
         y="-169.24384"
         x="83.952072"
         height="6"
         width="32.77729"
         id="rect852"
         style="opacity:1;fill:#000000;fill-opacity:1;fill-rule:nonzero;stroke:none;stroke-width:2;stroke-linecap:butt;stroke-linejoin:round;stroke-miterlimit:4;stroke-dasharray:none;stroke-dashoffset:0;stroke-opacity:1;paint-order:fill markers stroke"
         transform="rotate(90)" />
      <rect
         y="83.952072"
         x="16.243834"
         height="10"
         width="300"
         id="rect815"
         style="opacity:0.72399998;fill:#ff9955;fill-opacity:1;fill-rule:nonzero;stroke:none;stroke-width:1.99999964;stroke-linecap:butt;stroke-linejoin:round;stroke-miterlimit:4;stroke-dasharray:none;stroke-dashoffset:0;stroke-opacity:1;paint-order:fill markers stroke" />
      <rect
         style="opacity:1;fill:#ff6600;fill-opacity:1;fill-rule:nonzero;stroke:none;stroke-width:1.99999964;stroke-linecap:butt;stroke-linejoin:round;stroke-miterlimit:4;stroke-dasharray:none;stroke-dashoffset:0;stroke-opacity:1;paint-order:fill markers stroke"
         id="rect839"
         width="300"
         height="3"
         x="16.243834"
         y="80.952072" />
      <rect
         transform="rotate(90)"
         style="opacity:1;fill:#000000;fill-opacity:1;fill-rule:nonzero;stroke:none;stroke-width:1.99999964;stroke-linecap:butt;stroke-linejoin:round;stroke-miterlimit:4;stroke-dasharray:none;stroke-dashoffset:0;stroke-opacity:1;paint-order:fill markers stroke"
         id="rect841"
         width="5.4203467"
         height="15.118145"
         x="93.921066"
         y="-173.64528" />
      <rect
         y="-173.8029"
         x="83.952072"
         height="15.118145"
         width="5.4203467"
         id="rect845"
         style="opacity:1;fill:#000000;fill-opacity:1;fill-rule:nonzero;stroke:none;stroke-width:1.99999964;stroke-linecap:butt;stroke-linejoin:round;stroke-miterlimit:4;stroke-dasharray:none;stroke-dashoffset:0;stroke-opacity:1;paint-order:fill markers stroke"
         transform="rotate(90)" />
    </g>
    <rect
       y="-194.34665"
       x="348.19095"
       height="8"
       width="150.03464"
       id="rect855"
       style="opacity:1;fill:#000000;fill-opacity:1;fill-rule:nonzero;stroke:none;stroke-width:2;stroke-linecap:butt;stroke-linejoin:round;stroke-miterlimit:4;stroke-dasharray:none;stroke-dashoffset:0;stroke-opacity:1;paint-order:fill markers stroke"
       transform="rotate(90)" />
    <rect
       y="348.19067"
       x="40.346645"
       height="10"
       width="300"
       id="rect857"
       style="opacity:0.72399998;fill:#ff9955;fill-opacity:1;fill-rule:nonzero;stroke:none;stroke-width:1.99999964;stroke-linecap:butt;stroke-linejoin:round;stroke-miterlimit:4;stroke-dasharray:none;stroke-dashoffset:0;stroke-opacity:1;paint-order:fill markers stroke" />
    <rect
       y="-207.02386"
       x="340.89557"
       height="33.354435"
       width="7.2951055"
       id="rect863"
       style="opacity:1;fill:#000000;fill-opacity:1;fill-rule:nonzero;stroke:none;stroke-width:1.99999964;stroke-linecap:butt;stroke-linejoin:round;stroke-miterlimit:4;stroke-dasharray:none;stroke-dashoffset:0;stroke-opacity:1;paint-order:fill markers stroke"
       transform="rotate(90)" />
    <rect
       transform="rotate(90)"
       style="opacity:1;fill:#000000;fill-opacity:1;fill-rule:nonzero;stroke:none;stroke-width:1.99999964;stroke-linecap:butt;stroke-linejoin:round;stroke-miterlimit:4;stroke-dasharray:none;stroke-dashoffset:0;stroke-opacity:1;paint-order:fill markers stroke"
       id="rect872"
       width="7.2951055"
       height="33.354435"
       x="358.19067"
       y="-207.02386" />
    <rect
       style="opacity:0.72399998;fill:#ff9955;fill-opacity:1;fill-rule:nonzero;stroke:none;stroke-width:1.99999964;stroke-linecap:butt;stroke-linejoin:round;stroke-miterlimit:4;stroke-dasharray:none;stroke-dashoffset:0;stroke-opacity:1;paint-order:fill markers stroke"
       id="rect874"
       width="300"
       height="10"
       x="40.346645"
       y="488.22559" />
    <g
       id="g882"
       transform="translate(0,140.03491)">
      <rect
         y="-207.02386"
         x="340.89557"
         height="33.354435"
         width="7.2951055"
         id="rect876"
         style="opacity:1;fill:#000000;fill-opacity:1;fill-rule:nonzero;stroke:none;stroke-width:1.99999964;stroke-linecap:butt;stroke-linejoin:round;stroke-miterlimit:4;stroke-dasharray:none;stroke-dashoffset:0;stroke-opacity:1;paint-order:fill markers stroke"
         transform="rotate(90)" />
      <rect
         transform="rotate(90)"
         style="opacity:1;fill:#000000;fill-opacity:1;fill-rule:nonzero;stroke:none;stroke-width:1.99999964;stroke-linecap:butt;stroke-linejoin:round;stroke-miterlimit:4;stroke-dasharray:none;stroke-dashoffset:0;stroke-opacity:1;paint-order:fill markers stroke"
         id="rect878"
         width="7.2951055"
         height="33.354435"
         x="358.19067"
         y="-207.02386" />
    </g>
    <rect
       style="opacity:0.72399998;fill:#ff9955;fill-opacity:1;fill-rule:nonzero;stroke:none;stroke-width:1.99999976;stroke-linecap:butt;stroke-linejoin:round;stroke-miterlimit:4;stroke-dasharray:none;stroke-dashoffset:0;stroke-opacity:1;paint-order:fill markers stroke"
       id="rect884"
       width="123.43182"
       height="10"
       x="40.346645"
       y="360.19067" />
    <rect
       y="360.19067"
       x="216.91483"
       height="10"
       width="123.43182"
       id="rect888"
       style="opacity:0.72399998;fill:#ff9955;fill-opacity:1;fill-rule:nonzero;stroke:none;stroke-width:1.99999976;stroke-linecap:butt;stroke-linejoin:round;stroke-miterlimit:4;stroke-dasharray:none;stroke-dashoffset:0;stroke-opacity:1;paint-order:fill markers stroke" />
    <rect
       transform="rotate(90)"
       style="opacity:1;fill:#ff2a2a;fill-opacity:1;fill-rule:nonzero;stroke:none;stroke-width:1.99999964;stroke-linecap:butt;stroke-linejoin:round;stroke-miterlimit:4;stroke-dasharray:none;stroke-dashoffset:0;stroke-opacity:1;paint-order:fill markers stroke"
       id="rect890"
       width="2"
       height="94.093521"
       x="414.20828"
       y="-237.3934" />
    <rect
       y="-237.3934"
       x="448.20828"
       height="94.093521"
       width="2"
       id="rect894"
       style="opacity:1;fill:#ff2a2a;fill-opacity:1;fill-rule:nonzero;stroke:none;stroke-width:1.99999964;stroke-linecap:butt;stroke-linejoin:round;stroke-miterlimit:4;stroke-dasharray:none;stroke-dashoffset:0;stroke-opacity:1;paint-order:fill markers stroke"
       transform="rotate(90)" />
    <rect
       y="-207.02386"
       x="406.91318"
       height="33.354435"
       width="7.2951055"
       id="rect896"
       style="opacity:1;fill:#000000;fill-opacity:1;fill-rule:nonzero;stroke:none;stroke-width:1.99999964;stroke-linecap:butt;stroke-linejoin:round;stroke-miterlimit:4;stroke-dasharray:none;stroke-dashoffset:0;stroke-opacity:1;paint-order:fill markers stroke"
       transform="rotate(90)" />
    <rect
       transform="rotate(90)"
       style="opacity:1;fill:#000000;fill-opacity:1;fill-rule:nonzero;stroke:none;stroke-width:1.99999964;stroke-linecap:butt;stroke-linejoin:round;stroke-miterlimit:4;stroke-dasharray:none;stroke-dashoffset:0;stroke-opacity:1;paint-order:fill markers stroke"
       id="rect898"
       width="7.2951055"
       height="33.354435"
       x="416.20828"
       y="-207.02386" />
    <rect
       transform="rotate(90)"
       style="opacity:1;fill:#000000;fill-opacity:1;fill-rule:nonzero;stroke:none;stroke-width:1.99999964;stroke-linecap:butt;stroke-linejoin:round;stroke-miterlimit:4;stroke-dasharray:none;stroke-dashoffset:0;stroke-opacity:1;paint-order:fill markers stroke"
       id="rect900"
       width="7.2951055"
       height="33.354435"
       x="450.20828"
       y="-207.02386" />
    <rect
       y="-207.02386"
       x="440.91318"
       height="33.354435"
       width="7.2951055"
       id="rect902"
       style="opacity:1;fill:#000000;fill-opacity:1;fill-rule:nonzero;stroke:none;stroke-width:1.99999964;stroke-linecap:butt;stroke-linejoin:round;stroke-miterlimit:4;stroke-dasharray:none;stroke-dashoffset:0;stroke-opacity:1;paint-order:fill markers stroke"
       transform="rotate(90)" />
    <g
       id="g935">
      <rect
         transform="rotate(90)"
         style="opacity:1;fill:#000000;fill-opacity:1;fill-rule:nonzero;stroke:none;stroke-width:1.99999964;stroke-linecap:butt;stroke-linejoin:round;stroke-miterlimit:4;stroke-dasharray:none;stroke-dashoffset:0;stroke-opacity:1;paint-order:fill markers stroke"
         id="rect896-3"
         width="4.8848224"
         height="22.334221"
         x="408.32346"
         y="-251.8833" />
      <rect
         y="-251.8833"
         x="417.32346"
         height="22.334221"
         width="4.8848224"
         id="rect928"
         style="opacity:1;fill:#000000;fill-opacity:1;fill-rule:nonzero;stroke:none;stroke-width:1.99999964;stroke-linecap:butt;stroke-linejoin:round;stroke-miterlimit:4;stroke-dasharray:none;stroke-dashoffset:0;stroke-opacity:1;paint-order:fill markers stroke"
         transform="rotate(90)" />
      <rect
         y="-426.3754"
         x="-256.76813"
         height="22.334221"
         width="4.8848224"
         id="rect930"
         style="opacity:1;fill:#000000;fill-opacity:1;fill-rule:nonzero;stroke:none;stroke-width:1.99999964;stroke-linecap:butt;stroke-linejoin:round;stroke-miterlimit:4;stroke-dasharray:none;stroke-dashoffset:0;stroke-opacity:1;paint-order:fill markers stroke"
         transform="scale(-1)" />
    </g>
    <g
       id="g943"
       transform="translate(0,33.999996)">
      <rect
         y="-251.8833"
         x="408.32346"
         height="22.334221"
         width="4.8848224"
         id="rect937"
         style="opacity:1;fill:#000000;fill-opacity:1;fill-rule:nonzero;stroke:none;stroke-width:1.99999964;stroke-linecap:butt;stroke-linejoin:round;stroke-miterlimit:4;stroke-dasharray:none;stroke-dashoffset:0;stroke-opacity:1;paint-order:fill markers stroke"
         transform="rotate(90)" />
      <rect
         transform="rotate(90)"
         style="opacity:1;fill:#000000;fill-opacity:1;fill-rule:nonzero;stroke:none;stroke-width:1.99999964;stroke-linecap:butt;stroke-linejoin:round;stroke-miterlimit:4;stroke-dasharray:none;stroke-dashoffset:0;stroke-opacity:1;paint-order:fill markers stroke"
         id="rect939"
         width="4.8848224"
         height="22.334221"
         x="417.32346"
         y="-251.8833" />
      <rect
         transform="scale(-1)"
         style="opacity:1;fill:#000000;fill-opacity:1;fill-rule:nonzero;stroke:none;stroke-width:1.99999964;stroke-linecap:butt;stroke-linejoin:round;stroke-miterlimit:4;stroke-dasharray:none;stroke-dashoffset:0;stroke-opacity:1;paint-order:fill markers stroke"
         id="rect941"
         width="4.8848224"
         height="22.334221"
         x="-256.76813"
         y="-426.3754" />
    </g>
    <rect
       style="opacity:0.72399998;fill:#ff9955;fill-opacity:1;fill-rule:nonzero;stroke:none;stroke-width:1.99999988;stroke-linecap:butt;stroke-linejoin:round;stroke-miterlimit:4;stroke-dasharray:none;stroke-dashoffset:0;stroke-opacity:1;paint-order:fill markers stroke"
       id="rect945"
       width="117.97798"
       height="10"
       x="370.19067"
       y="-266.76813"
       transform="rotate(90)" />
    <rect
       transform="rotate(90)"
       style="opacity:1;fill:#000000;fill-opacity:1;fill-rule:nonzero;stroke:none;stroke-width:2;stroke-linecap:butt;stroke-linejoin:round;stroke-miterlimit:4;stroke-dasharray:none;stroke-dashoffset:0;stroke-opacity:1;paint-order:fill markers stroke"
       id="rect997"
       width="150.03464"
       height="12"
       x="567.39099"
       y="-196.34665" />
    <rect
       style="opacity:0.72399998;fill:#ff9955;fill-opacity:1;fill-rule:nonzero;stroke:none;stroke-width:1.99999964;stroke-linecap:butt;stroke-linejoin:round;stroke-miterlimit:4;stroke-dasharray:none;stroke-dashoffset:0;stroke-opacity:1;paint-order:fill markers stroke"
       id="rect999"
       width="300"
       height="10"
       x="40.346645"
       y="567.39069" />
    <rect
       transform="rotate(90)"
       style="opacity:1;fill:#000000;fill-opacity:1;fill-rule:nonzero;stroke:none;stroke-width:1.99999964;stroke-linecap:butt;stroke-linejoin:round;stroke-miterlimit:4;stroke-dasharray:none;stroke-dashoffset:0;stroke-opacity:1;paint-order:fill markers stroke"
       id="rect1001"
       width="7.2951055"
       height="33.354435"
       x="560.09558"
       y="-207.02386" />
    <rect
       y="-207.02386"
       x="577.39069"
       height="33.354435"
       width="7.2951055"
       id="rect1003"
       style="opacity:1;fill:#000000;fill-opacity:1;fill-rule:nonzero;stroke:none;stroke-width:1.99999964;stroke-linecap:butt;stroke-linejoin:round;stroke-miterlimit:4;stroke-dasharray:none;stroke-dashoffset:0;stroke-opacity:1;paint-order:fill markers stroke"
       transform="rotate(90)" />
    <rect
       y="707.42554"
       x="40.346645"
       height="10"
       width="300"
       id="rect1005"
       style="opacity:0.72399998;fill:#ff9955;fill-opacity:1;fill-rule:nonzero;stroke:none;stroke-width:1.99999964;stroke-linecap:butt;stroke-linejoin:round;stroke-miterlimit:4;stroke-dasharray:none;stroke-dashoffset:0;stroke-opacity:1;paint-order:fill markers stroke" />
    <g
       transform="translate(0,359.23491)"
       id="g1011">
      <rect
         transform="rotate(90)"
         style="opacity:1;fill:#000000;fill-opacity:1;fill-rule:nonzero;stroke:none;stroke-width:1.99999964;stroke-linecap:butt;stroke-linejoin:round;stroke-miterlimit:4;stroke-dasharray:none;stroke-dashoffset:0;stroke-opacity:1;paint-order:fill markers stroke"
         id="rect1007"
         width="7.2951055"
         height="33.354435"
         x="340.89557"
         y="-207.02386" />
      <rect
         y="-207.02386"
         x="358.19067"
         height="33.354435"
         width="7.2951055"
         id="rect1009"
         style="opacity:1;fill:#000000;fill-opacity:1;fill-rule:nonzero;stroke:none;stroke-width:1.99999964;stroke-linecap:butt;stroke-linejoin:round;stroke-miterlimit:4;stroke-dasharray:none;stroke-dashoffset:0;stroke-opacity:1;paint-order:fill markers stroke"
         transform="rotate(90)" />
    </g>
    <rect
       y="579.39069"
       x="40.346645"
       height="10"
       width="123.43182"
       id="rect1013"
       style="opacity:0.72399998;fill:#ff9955;fill-opacity:1;fill-rule:nonzero;stroke:none;stroke-width:1.99999976;stroke-linecap:butt;stroke-linejoin:round;stroke-miterlimit:4;stroke-dasharray:none;stroke-dashoffset:0;stroke-opacity:1;paint-order:fill markers stroke" />
    <rect
       style="opacity:0.72399998;fill:#ff9955;fill-opacity:1;fill-rule:nonzero;stroke:none;stroke-width:1.99999976;stroke-linecap:butt;stroke-linejoin:round;stroke-miterlimit:4;stroke-dasharray:none;stroke-dashoffset:0;stroke-opacity:1;paint-order:fill markers stroke"
       id="rect1015"
       width="123.43182"
       height="10"
       x="216.91483"
       y="579.39069" />
    <g
       id="g1112"
       transform="translate(-28.973545,-37.176906)">
      <rect
         transform="rotate(-90)"
         style="opacity:1;fill:#000000;fill-opacity:1;fill-rule:nonzero;stroke:none;stroke-width:1.99999964;stroke-linecap:butt;stroke-linejoin:round;stroke-miterlimit:4;stroke-dasharray:none;stroke-dashoffset:0;stroke-opacity:1;paint-order:fill markers stroke"
         id="rect1033"
         width="4.8848224"
         height="24.242376"
         x="-634.52026"
         y="116.79008" />
      <g
         transform="matrix(0.80159375,0,0,0.80159375,25.622965,125.71723)"
         id="g1106"
         style="stroke-width:1.24751472">
        <rect
           rx="2.4950294"
           y="-633.63544"
           x="-126.7961"
           height="22.334221"
           width="4.8848224"
           id="rect1031"
           style="opacity:1;fill:#000000;fill-opacity:1;fill-rule:nonzero;stroke:none;stroke-width:2.49502897;stroke-linecap:butt;stroke-linejoin:round;stroke-miterlimit:4;stroke-dasharray:none;stroke-dashoffset:0;stroke-opacity:1;paint-order:fill markers stroke"
           transform="scale(-1)"
           ry="2.4950294" />
        <rect
           ry="2.4950294"
           transform="scale(-1)"
           style="opacity:1;fill:#000000;fill-opacity:1;fill-rule:nonzero;stroke:none;stroke-width:2.49502897;stroke-linecap:butt;stroke-linejoin:round;stroke-miterlimit:4;stroke-dasharray:none;stroke-dashoffset:0;stroke-opacity:1;paint-order:fill markers stroke"
           id="rect1102"
           width="4.8848224"
           height="22.334221"
           x="-135.7961"
           y="-633.63544"
           rx="2.4950294" />
      </g>
    </g>
    <g
       transform="translate(-55.973545,-37.176906)"
       id="g1122">
      <rect
         y="116.79008"
         x="-634.52026"
         height="24.242376"
         width="4.8848224"
         id="rect1114"
         style="opacity:1;fill:#000000;fill-opacity:1;fill-rule:nonzero;stroke:none;stroke-width:1.99999964;stroke-linecap:butt;stroke-linejoin:round;stroke-miterlimit:4;stroke-dasharray:none;stroke-dashoffset:0;stroke-opacity:1;paint-order:fill markers stroke"
         transform="rotate(-90)" />
      <g
         style="stroke-width:1.24751472"
         id="g1120"
         transform="matrix(0.80159375,0,0,0.80159375,25.622965,125.71723)">
        <rect
           ry="2.4950294"
           transform="scale(-1)"
           style="opacity:1;fill:#000000;fill-opacity:1;fill-rule:nonzero;stroke:none;stroke-width:2.49502897;stroke-linecap:butt;stroke-linejoin:round;stroke-miterlimit:4;stroke-dasharray:none;stroke-dashoffset:0;stroke-opacity:1;paint-order:fill markers stroke"
           id="rect1116"
           width="4.8848224"
           height="22.334221"
           x="-126.7961"
           y="-633.63544"
           rx="2.4950294" />
        <rect
           rx="2.4950294"
           y="-633.63544"
           x="-135.7961"
           height="22.334221"
           width="4.8848224"
           id="rect1118"
           style="opacity:1;fill:#000000;fill-opacity:1;fill-rule:nonzero;stroke:none;stroke-width:2.49502897;stroke-linecap:butt;stroke-linejoin:round;stroke-miterlimit:4;stroke-dasharray:none;stroke-dashoffset:0;stroke-opacity:1;paint-order:fill markers stroke"
           transform="scale(-1)"
           ry="2.4950294" />
      </g>
    </g>
    <rect
       y="370.19067"
       x="123.92517"
       height="10"
       width="132.84296"
       id="rect1147"
       style="opacity:0.72399998;fill:#ff7f2a;fill-opacity:1;fill-rule:nonzero;stroke:none;stroke-width:1.99999976;stroke-linecap:butt;stroke-linejoin:round;stroke-miterlimit:4;stroke-dasharray:none;stroke-dashoffset:0;stroke-opacity:1;paint-order:fill markers stroke" />
    <rect
       y="-201.2392"
       x="371.51147"
       height="22"
       width="7.2950001"
       id="rect1149"
       style="opacity:1;fill:#0000ff;fill-opacity:1;fill-rule:nonzero;stroke:none;stroke-width:1.99999952;stroke-linecap:butt;stroke-linejoin:round;stroke-miterlimit:4;stroke-dasharray:none;stroke-dashoffset:0;stroke-opacity:1;paint-order:fill markers stroke"
       transform="rotate(90)" />
    <rect
       style="opacity:0.72399998;fill:#ff7f2a;fill-opacity:1;fill-rule:nonzero;stroke:none;stroke-width:1.99999988;stroke-linecap:butt;stroke-linejoin:round;stroke-miterlimit:4;stroke-dasharray:none;stroke-dashoffset:0;stroke-opacity:1;paint-order:fill markers stroke"
       id="rect1151"
       width="135.00117"
       height="10"
       x="122.84606"
       y="469.19067" />
    <rect
       transform="rotate(90)"
       style="opacity:1;fill:#0000ff;fill-opacity:1;fill-rule:nonzero;stroke:none;stroke-width:1.99999952;stroke-linecap:butt;stroke-linejoin:round;stroke-miterlimit:4;stroke-dasharray:none;stroke-dashoffset:0;stroke-opacity:1;paint-order:fill markers stroke"
       id="rect1153"
       width="7.2950001"
       height="22"
       x="470.51147"
       y="-201.2392" />
    <rect
       transform="rotate(90)"
       y="-123.92517"
       x="370.19067"
       height="10"
       width="117.97798"
       id="rect1161"
       style="opacity:0.72399998;fill:#ff9955;fill-opacity:1;fill-rule:nonzero;stroke:none;stroke-width:1.99999988;stroke-linecap:butt;stroke-linejoin:round;stroke-miterlimit:4;stroke-dasharray:none;stroke-dashoffset:0;stroke-opacity:1;paint-order:fill markers stroke" />
    <g
       id="g1181"
       transform="translate(0,219.20001)">
      <rect
         style="opacity:0.72399998;fill:#ff9955;fill-opacity:1;fill-rule:nonzero;stroke:none;stroke-width:1.99999988;stroke-linecap:butt;stroke-linejoin:round;stroke-miterlimit:4;stroke-dasharray:none;stroke-dashoffset:0;stroke-opacity:1;paint-order:fill markers stroke"
         id="rect1163"
         width="117.97798"
         height="10"
         x="370.19067"
         y="-266.76813"
         transform="rotate(90)" />
      <rect
         y="370.19067"
         x="123.92517"
         height="10"
         width="132.84296"
         id="rect1165"
         style="opacity:0.72399998;fill:#ff7f2a;fill-opacity:1;fill-rule:nonzero;stroke:none;stroke-width:1.99999976;stroke-linecap:butt;stroke-linejoin:round;stroke-miterlimit:4;stroke-dasharray:none;stroke-dashoffset:0;stroke-opacity:1;paint-order:fill markers stroke" />
      <rect
         y="-201.2392"
         x="371.51147"
         height="22"
         width="7.2950001"
         id="rect1167"
         style="opacity:1;fill:#0000ff;fill-opacity:1;fill-rule:nonzero;stroke:none;stroke-width:1.99999952;stroke-linecap:butt;stroke-linejoin:round;stroke-miterlimit:4;stroke-dasharray:none;stroke-dashoffset:0;stroke-opacity:1;paint-order:fill markers stroke"
         transform="rotate(90)" />
      <rect
         style="opacity:0.72399998;fill:#ff7f2a;fill-opacity:1;fill-rule:nonzero;stroke:none;stroke-width:1.99999988;stroke-linecap:butt;stroke-linejoin:round;stroke-miterlimit:4;stroke-dasharray:none;stroke-dashoffset:0;stroke-opacity:1;paint-order:fill markers stroke"
         id="rect1169"
         width="135.00117"
         height="10"
         x="122.84606"
         y="469.19067" />
      <rect
         transform="rotate(90)"
         style="opacity:1;fill:#0000ff;fill-opacity:1;fill-rule:nonzero;stroke:none;stroke-width:1.99999952;stroke-linecap:butt;stroke-linejoin:round;stroke-miterlimit:4;stroke-dasharray:none;stroke-dashoffset:0;stroke-opacity:1;paint-order:fill markers stroke"
         id="rect1171"
         width="7.2950001"
         height="22"
         x="470.51147"
         y="-201.2392" />
      <rect
         transform="rotate(90)"
         y="-123.92517"
         x="370.19067"
         height="10"
         width="117.97798"
         id="rect1173"
         style="opacity:0.72399998;fill:#ff9955;fill-opacity:1;fill-rule:nonzero;stroke:none;stroke-width:1.99999988;stroke-linecap:butt;stroke-linejoin:round;stroke-miterlimit:4;stroke-dasharray:none;stroke-dashoffset:0;stroke-opacity:1;paint-order:fill markers stroke" />
    </g>
    <rect
       y="-185.56877"
       x="109.38995"
       height="7"
       width="52.260433"
       id="rect1204"
       style="opacity:1;fill:#ff0000;fill-opacity:0.6533333;fill-rule:nonzero;stroke:none;stroke-width:1.99999988;stroke-linecap:butt;stroke-linejoin:round;stroke-miterlimit:4;stroke-dasharray:none;stroke-dashoffset:0;stroke-opacity:1;paint-order:fill markers stroke" />
    <rect
       y="-204.20309"
       x="-178.0406"
       height="20"
       width="16.057808"
       id="rect1208"
       style="opacity:1;fill:#333333;fill-opacity:0.47297297;fill-rule:nonzero;stroke:none;stroke-width:1.99999964;stroke-linecap:butt;stroke-linejoin:round;stroke-miterlimit:4;stroke-dasharray:none;stroke-dashoffset:0;stroke-opacity:1;paint-order:fill markers stroke"
       transform="rotate(90)" />
    <g
       transform="translate(27.959262,-320.37084)"
       id="g1216">
      <rect
         style="opacity:1;fill:#666666;fill-opacity:0.6533333;fill-rule:nonzero;stroke:none;stroke-width:1.99999988;stroke-linecap:butt;stroke-linejoin:round;stroke-miterlimit:4;stroke-dasharray:none;stroke-dashoffset:0;stroke-opacity:1;paint-order:fill markers stroke"
         id="rect1212"
         width="52.052723"
         height="2"
         x="133.69112"
         y="-141.80208"
         transform="scale(1,-1)" />
      <rect
         transform="matrix(0,1,1,0,0,0)"
         y="133.69112"
         x="141.80208"
         height="2"
         width="71.088463"
         id="rect1214"
         style="opacity:1;fill:#666666;fill-opacity:0.6533333;fill-rule:nonzero;stroke:none;stroke-width:1.99999976;stroke-linecap:butt;stroke-linejoin:round;stroke-miterlimit:4;stroke-dasharray:none;stroke-dashoffset:0;stroke-opacity:1;paint-order:fill markers stroke" />
    </g>
    <g
       transform="translate(27.959262,-282.20256)"
       id="g1224">
      <rect
         style="opacity:1;fill:#666666;fill-opacity:0.6533333;fill-rule:nonzero;stroke:none;stroke-width:2;stroke-linecap:butt;stroke-linejoin:round;stroke-miterlimit:4;stroke-dasharray:none;stroke-dashoffset:0;stroke-opacity:1;paint-order:fill markers stroke"
         id="rect1220"
         width="178.48911"
         height="15"
         x="-44.797989"
         y="103.6338" />
      <rect
         y="-133.69112"
         x="118.71425"
         height="15"
         width="161.73764"
         id="rect1222"
         style="opacity:1;fill:#666666;fill-opacity:0.6533333;fill-rule:nonzero;stroke:none;stroke-width:2;stroke-linecap:butt;stroke-linejoin:round;stroke-miterlimit:4;stroke-dasharray:none;stroke-dashoffset:0;stroke-opacity:1;paint-order:fill markers stroke"
         transform="rotate(90)" />
    </g>
    <rect
       style="opacity:1;fill:#1a1a1a;fill-opacity:0.6533333;fill-rule:nonzero;stroke:none;stroke-width:2;stroke-linecap:butt;stroke-linejoin:round;stroke-miterlimit:4;stroke-dasharray:none;stroke-dashoffset:0;stroke-opacity:1;paint-order:fill markers stroke"
       id="rect1226"
       width="161.73764"
       height="15"
       x="-119.53454"
       y="-193.56877" />
    <rect
       y="-193.56877"
       x="346.20309"
       height="15"
       width="161.73764"
       id="rect1228"
       style="opacity:1;fill:#1a1a1a;fill-opacity:0.6533333;fill-rule:nonzero;stroke:none;stroke-width:2;stroke-linecap:butt;stroke-linejoin:round;stroke-miterlimit:4;stroke-dasharray:none;stroke-dashoffset:0;stroke-opacity:1;paint-order:fill markers stroke" />
    <rect
       style="opacity:1;fill:#666666;fill-opacity:0.6533333;fill-rule:nonzero;stroke:none;stroke-width:2;stroke-linecap:butt;stroke-linejoin:round;stroke-miterlimit:4;stroke-dasharray:none;stroke-dashoffset:0;stroke-opacity:1;paint-order:fill markers stroke"
       id="rect1230"
       width="178.48911"
       height="15"
       x="223.16428"
       y="-178.56877" />
    <rect
       style="opacity:1;fill:#ff0000;fill-opacity:0.6533333;fill-rule:nonzero;stroke:none;stroke-width:1.99999988;stroke-linecap:butt;stroke-linejoin:round;stroke-miterlimit:4;stroke-dasharray:none;stroke-dashoffset:0;stroke-opacity:1;paint-order:fill markers stroke"
       id="rect1232"
       width="52.260433"
       height="7"
       x="223.16428"
       y="-185.56877" />
    <rect
       y="-197.20309"
       x="-195.61722"
       height="6"
       width="17.576609"
       id="rect1234"
       style="opacity:1;fill:#000000;fill-opacity:1;fill-rule:nonzero;stroke:none;stroke-width:1.99999988;stroke-linecap:butt;stroke-linejoin:round;stroke-miterlimit:4;stroke-dasharray:none;stroke-dashoffset:0;stroke-opacity:1;paint-order:fill markers stroke"
       transform="rotate(90)" />
    <rect
       y="-195.56877"
       x="44.203094"
       height="10"
       width="300"
       id="rect1236"
       style="opacity:0.72399998;fill:#ff9955;fill-opacity:1;fill-rule:nonzero;stroke:none;stroke-width:1.99999964;stroke-linecap:butt;stroke-linejoin:round;stroke-miterlimit:4;stroke-dasharray:none;stroke-dashoffset:0;stroke-opacity:1;paint-order:fill markers stroke" />
    <rect
       style="opacity:1;fill:#ff6600;fill-opacity:1;fill-rule:nonzero;stroke:none;stroke-width:1.99999964;stroke-linecap:butt;stroke-linejoin:round;stroke-miterlimit:4;stroke-dasharray:none;stroke-dashoffset:0;stroke-opacity:1;paint-order:fill markers stroke"
       id="rect1238"
       width="300"
       height="3"
       x="44.203094"
       y="-198.56877" />
    <text
       xml:space="preserve"
       style="font-style:normal;font-variant:normal;font-weight:normal;font-stretch:normal;font-size:2.11666656px;line-height:1.25;font-family:monospace;-inkscape-font-specification:'monospace, Normal';font-variant-ligatures:normal;font-variant-caps:normal;font-variant-numeric:normal;font-feature-settings:normal;text-align:start;letter-spacing:0px;word-spacing:0px;writing-mode:lr-tb;text-anchor:start;fill:#000000;fill-opacity:1;stroke:none;stroke-width:0.26458332"
       x="178.87083"
       y="-154.40457"
       id="text1253"><tspan
         sodipodi:role="line"
         id="tspan1251"
         x="178.87083"
         y="-154.40457"
         style="stroke-width:0.26458332">encodeur incrémental magnétique</tspan><tspan
         sodipodi:role="line"
         x="178.87083"
         y="-151.75874"
         style="stroke-width:0.26458332"
         id="tspan1255">Farnel AEAT 601B </tspan></text>
    <rect
       transform="rotate(90)"
       style="opacity:1;fill:#000000;fill-opacity:1;fill-rule:nonzero;stroke:none;stroke-width:2;stroke-linecap:butt;stroke-linejoin:round;stroke-miterlimit:4;stroke-dasharray:none;stroke-dashoffset:0;stroke-opacity:1;paint-order:fill markers stroke"
       id="rect1257"
       width="3.5969779"
       height="16.12318"
       x="-196.09927"
       y="-202.26468" />
    <rect
       y="-202.50571"
       x="-185.73506"
       height="16.12318"
       width="3.5969779"
       id="rect1259"
       style="opacity:1;fill:#000000;fill-opacity:1;fill-rule:nonzero;stroke:none;stroke-width:2;stroke-linecap:butt;stroke-linejoin:round;stroke-miterlimit:4;stroke-dasharray:none;stroke-dashoffset:0;stroke-opacity:1;paint-order:fill markers stroke"
       transform="rotate(90)" />
  </g>
</svg>
